%YAML 1.1
%TAG !u! tag:unity3d.com,2011:
--- !u!21 &2100000
Material:
  serializedVersion: 6
  m_ObjectHideFlags: 0
  m_CorrespondingSourceObject: {fileID: 0}
  m_PrefabInstance: {fileID: 0}
  m_PrefabAsset: {fileID: 0}
  m_Name: PolygonPrototype_Global_Grid_12
  m_Shader: {fileID: 4800000, guid: d6f2a6aa53be2674580ae1599bb9a33e, type: 3}
  m_ShaderKeywords: 
  m_LightmapFlags: 4
  m_EnableInstancingVariants: 0
  m_DoubleSidedGI: 0
  m_CustomRenderQueue: -1
  stringTagMap: {}
  disabledShaderPasses: []
  m_SavedProperties:
    serializedVersion: 3
    m_TexEnvs:
    - _Grid:
        m_Texture: {fileID: 2800000, guid: 2a09470ada0c47849ad79d26363f8e4a, type: 3}
        m_Scale: {x: 1, y: 1}
        m_Offset: {x: 0, y: 0}
    m_Floats:
    - _Falloff: 50
    - _GridScale: 1
    - _OverlayAmount: 0.5
    - __dirty: 1
    m_Colors:
    - _BaseColor: {r: 0.6368344, g: 0.20392154, b: 0.7411765, a: 0}
